[
    {
        "id": 1,
        "cust_name": "Zul",
        "email": "zUl@mail.com",
        "phone_num": 12345
    },
    {
        "id": 2,
        "cust_name": "Fahri",
        "email": "Fahri@mail.com",
        "phone_num": 12345
    },
    {
        "id": 3,
        "cust_name": "Baihaqi",
        "email": "baihAqi@mail.com",
        "phone_num": 12345
    }
]