{
  "swagger": "2.0",
  "info": {
    "title": "My API Documentation",
    "description": "Dokumentasi dari RESTful API yang telah dibuat pada challenge chapter 4",
    "version": "1.0.0"
  },
  "host": "localhost:3000",
  "basePath": "/",
  "schemes": [
    "http"
  ],
  "tags": [
    {
      "name": "Homepage",
      "description": "Halaman awal pada API"
    },
    {
      "name": "Customers",
      "description": "Endpoints untuk customers"
    },
    {
      "name": "Orders",
      "description": "Endpoints untuk orders"
    },
    {
      "name": "Products",
      "description": "Endpoints untuk products"
    }
  ],
  "paths": {
    "/": {
      "get": {
        "tags": [
          "Homepage"
        ],
        "summary": "Untuk menampilkan halaman awal",
        "description": "",
        "parameters": [],
        "responses": {
          "200": {
            "description": "OK"
          },
          "401": {
            "description": "Unauthorized"
          }
        }
      }
    },
    "/customers/": {
      "get": {
        "tags": [
          "Customers"
        ],
        "summary": "Menampilkan seluruh data dari tabel customers",
        "description": "Menampilkan isi dari tabel customers dan dapat disesuaikan dengan pagination",
        "parameters": [
          {
            "name": "page",
            "in": "query",
            "type": "string"
          },
          {
            "name": "row",
            "in": "query",
            "type": "string"
          }
        ],
        "responses": {
          "200": {
            "description": "OK"
          },
          "401": {
            "description": "Unauthorized"
          },
          "500": {
            "description": "Internal Server Error"
          }
        }
      },
      "post": {
        "tags": [
          "Customers"
        ],
        "summary": "Menambahkan data customer baru",
        "description": "Menambahkan data customer baru",
        "parameters": [
          {
            "name": "body",
            "in": "body",
            "schema": {
              "type": "object",
              "properties": {
                "cust_name": {
                  "example": "Zul"
                },
                "email": {
                  "example": "zul@mail.com"
                },
                "phone_num": {
                  "example": 6212345678
                }
              }
            }
          }
        ],
        "responses": {
          "200": {
            "description": "OK"
          },
          "400": {
            "description": "Bad Request"
          },
          "401": {
            "description": "Unauthorized"
          },
          "409": {
            "description": "Conflict"
          },
          "500": {
            "description": "Internal Server Error"
          }
        }
      }
    },
    "/customers/{id}": {
      "get": {
        "tags": [
          "Customers"
        ],
        "summary": "Memanggil data customer dengan id yang diinginkan",
        "description": "Memanggil data customer dengan id yang diinginkan",
        "parameters": [
          {
            "name": "id",
            "in": "path",
            "required": true,
            "type": "string"
          }
        ],
        "responses": {
          "200": {
            "description": "OK"
          },
          "401": {
            "description": "Unauthorized"
          },
          "404": {
            "description": "Not Found"
          },
          "500": {
            "description": "Internal Server Error"
          }
        }
      },
      "patch": {
        "tags": [
          "Customers"
        ],
        "summary": "Edit data customer",
        "description": "Edit data customer",
        "parameters": [
          {
            "name": "id",
            "in": "path",
            "required": true,
            "type": "string"
          },
          {
            "name": "body",
            "in": "body",
            "schema": {
              "type": "object",
              "properties": {
                "cust_name": {
                  "example": "Zul Fahri"
                },
                "email": {
                  "example": "zulf@mail.com"
                },
                "phone_num": {
                  "example": 123456789
                }
              }
            }
          }
        ],
        "responses": {
          "200": {
            "description": "OK"
          },
          "400": {
            "description": "Bad Request"
          },
          "401": {
            "description": "Unauthorized"
          },
          "404": {
            "description": "Not Found"
          },
          "500": {
            "description": "Internal Server Error"
          }
        }
      },
      "delete": {
        "tags": [
          "Customers"
        ],
        "summary": "Hapus data customer",
        "description": "Hapus data customer",
        "parameters": [
          {
            "name": "id",
            "in": "path",
            "required": true,
            "type": "string"
          }
        ],
        "responses": {
          "200": {
            "description": "OK"
          },
          "401": {
            "description": "Unauthorized"
          },
          "404": {
            "description": "Not Found"
          },
          "422": {
            "description": "Unprocessable Entity"
          },
          "500": {
            "description": "Internal Server Error"
          }
        }
      }
    },
    "/orders/": {
      "get": {
        "tags": [
          "Orders"
        ],
        "summary": "Menampilkan seluruh data dari tabel orders",
        "description": "Menampilkan seluruh data dari tabel orders",
        "parameters": [
          {
            "name": "page",
            "in": "query",
            "type": "string"
          },
          {
            "name": "row",
            "in": "query",
            "type": "string"
          }
        ],
        "responses": {
          "200": {
            "description": "OK"
          },
          "401": {
            "description": "Unauthorized"
          },
          "500": {
            "description": "Internal Server Error"
          }
        }
      },
      "post": {
        "tags": [
          "Orders"
        ],
        "summary": "Menambahkan data order baru",
        "description": "Menambahkan data order baru",
        "parameters": [
          {
            "name": "body",
            "in": "body",
            "schema": {
              "type": "object",
              "properties": {
                "quantity": {
                  "example": 100
                },
                "order_date": {
                  "example": "new Date()"
                },
                "customerId": {
                  "example": 1
                }
              }
            }
          }
        ],
        "responses": {
          "200": {
            "description": "OK"
          },
          "400": {
            "description": "Bad Request"
          },
          "401": {
            "description": "Unauthorized"
          },
          "404": {
            "description": "Not Found"
          },
          "500": {
            "description": "Internal Server Error"
          }
        }
      }
    },
    "/orders/{id}": {
      "get": {
        "tags": [
          "Orders"
        ],
        "summary": "Memanggil data order dengan id yang diinginkan",
        "description": "Memanggil data order dengan id yang diinginkan",
        "parameters": [
          {
            "name": "id",
            "in": "path",
            "required": true,
            "type": "string"
          }
        ],
        "responses": {
          "200": {
            "description": "OK"
          },
          "401": {
            "description": "Unauthorized"
          },
          "404": {
            "description": "Not Found"
          },
          "500": {
            "description": "Internal Server Error"
          }
        }
      },
      "patch": {
        "tags": [
          "Orders"
        ],
        "summary": "Edit data order",
        "description": "Edit data order",
        "parameters": [
          {
            "name": "id",
            "in": "path",
            "required": true,
            "type": "string"
          },
          {
            "name": "body",
            "in": "body",
            "schema": {
              "type": "object",
              "properties": {
                "quantity": {
                  "example": 1
                },
                "order_date": {
                  "example": "new Date()"
                },
                "customerId": {
                  "example": 2
                }
              }
            }
          }
        ],
        "responses": {
          "200": {
            "description": "OK"
          },
          "400": {
            "description": "Bad Request"
          },
          "401": {
            "description": "Unauthorized"
          },
          "404": {
            "description": "Not Found"
          },
          "500": {
            "description": "Internal Server Error"
          }
        }
      },
      "delete": {
        "tags": [
          "Orders"
        ],
        "summary": "Hapus data order",
        "description": "Hapus data order",
        "parameters": [
          {
            "name": "id",
            "in": "path",
            "required": true,
            "type": "string"
          }
        ],
        "responses": {
          "200": {
            "description": "OK"
          },
          "401": {
            "description": "Unauthorized"
          },
          "404": {
            "description": "Not Found"
          },
          "422": {
            "description": "Unprocessable Entity"
          },
          "500": {
            "description": "Internal Server Error"
          }
        }
      }
    },
    "/products/": {
      "get": {
        "tags": [
          "Products"
        ],
        "summary": "Menampilkan seluruh data dari tabel products",
        "description": "Menampilkan seluruh data dari tabel products",
        "parameters": [
          {
            "name": "page",
            "in": "query",
            "type": "string"
          },
          {
            "name": "row",
            "in": "query",
            "type": "string"
          }
        ],
        "responses": {
          "200": {
            "description": "OK"
          },
          "401": {
            "description": "Unauthorized"
          },
          "500": {
            "description": "Internal Server Error"
          }
        }
      },
      "post": {
        "tags": [
          "Products"
        ],
        "summary": "Menambahkan data product baru",
        "description": "Menambahkan data product baru",
        "parameters": [
          {
            "name": "body",
            "in": "body",
            "schema": {
              "type": "object",
              "properties": {
                "product_name": {
                  "example": "Sumsang"
                },
                "price": {
                  "example": 9999999
                },
                "orderId": {
                  "example": 1234
                }
              }
            }
          }
        ],
        "responses": {
          "200": {
            "description": "OK"
          },
          "400": {
            "description": "Bad Request"
          },
          "401": {
            "description": "Unauthorized"
          },
          "409": {
            "description": "Conflict"
          },
          "500": {
            "description": "Internal Server Error"
          }
        }
      }
    },
    "/products/{id}": {
      "get": {
        "tags": [
          "Products"
        ],
        "summary": "Memanggil data product dengan id yang diinginkan",
        "description": "Memanggil data product dengan id yang diinginkan",
        "parameters": [
          {
            "name": "id",
            "in": "path",
            "required": true,
            "type": "string"
          }
        ],
        "responses": {
          "200": {
            "description": "OK"
          },
          "401": {
            "description": "Unauthorized"
          },
          "404": {
            "description": "Not Found"
          },
          "500": {
            "description": "Internal Server Error"
          }
        }
      },
      "patch": {
        "tags": [
          "Products"
        ],
        "summary": "Edit data product",
        "description": "Edit data product",
        "parameters": [
          {
            "name": "id",
            "in": "path",
            "required": true,
            "type": "string"
          },
          {
            "name": "body",
            "in": "body",
            "schema": {
              "type": "object",
              "properties": {
                "product_name": {
                  "example": "snsV"
                },
                "price": {
                  "example": 1000
                },
                "orderId": {
                  "example": 4321
                }
              }
            }
          }
        ],
        "responses": {
          "200": {
            "description": "OK"
          },
          "400": {
            "description": "Bad Request"
          },
          "401": {
            "description": "Unauthorized"
          },
          "404": {
            "description": "Not Found"
          },
          "500": {
            "description": "Internal Server Error"
          }
        }
      },
      "delete": {
        "tags": [
          "Products"
        ],
        "summary": "Hapus data product",
        "description": "Hapus data product",
        "parameters": [
          {
            "name": "id",
            "in": "path",
            "required": true,
            "type": "string"
          }
        ],
        "responses": {
          "200": {
            "description": "OK"
          },
          "401": {
            "description": "Unauthorized"
          },
          "404": {
            "description": "Not Found"
          },
          "500": {
            "description": "Internal Server Error"
          }
        }
      }
    }
  }
}